2024_grad_cell/Bicubic.vcd
$date
    Mar 27, 2024  20:21:15
$end
$version
    TOOL:	ncsim(64)	15.20-s084
$end
$timescale
    1 ps
$end

$scope module testfixture $end
$var integer  32 !    fd  $end
$var integer  32 "    patnum  $end
$var reg       1 #    CLK  $end
$var reg       1 $    RST  $end
$var reg       7 %    V0 [6:0] $end
$var reg       7 &    H0 [6:0] $end
$var reg       5 '    SW [4:0] $end
$var reg       5 (    SH [4:0] $end
$var reg       6 )    TW [5:0] $end
$var reg       6 *    TH [5:0] $end
$var wire      1 +    DONE  $end
$var parameter 32 ,    pat_number  $end
$var parameter 32 -    ST_RESET  $end
$var parameter 32 .    ST_PATTERN  $end
$var parameter 32 /    ST_RUN  $end
$var parameter 32 0    ST_RETURN  $end
$var reg       2 1    state [1:0] $end
$var reg       2 2    rst_count [1:0] $end
$var integer  32 3    pat_n  $end
$var reg      31 4    cycle_pat [30:0] $end
$var integer  32 5    i  $end
$var integer  32 6    j  $end
$var integer  32 7    charcount  $end
$var integer  32 8    freturn  $end
$var integer  32 9    wait_done  $end
$var integer  32 :    error_pixels  $end
$var integer  32 ;    total_error_pixels  $end
$var reg       8 <    pv [7:0] $end
$var integer  32 =    idx  $end

$scope module u_Bicubic $end
$var wire      1 >    CLK  $end
$var wire      1 ?    RST  $end
$var wire      7 @    V0 [6:0] $end
$var wire      7 A    H0 [6:0] $end
$var wire      5 B    SW [4:0] $end
$var wire      5 C    SH [4:0] $end
$var wire      6 D    TW [5:0] $end
$var wire      6 E    TH [5:0] $end
$var wire      1 +    DONE  $end
$var parameter 32 F    FIND_P0  $end
$var parameter 32 G    LOAD_IMG  $end
$var parameter 32 H    INTERP  $end
$var parameter 32 I    STORE  $end
$var parameter 32 J    FINISH  $end
$var wire      1 K    img_data [7] $end
$var wire      1 L    img_data [6] $end
$var wire      1 M    img_data [5] $end
$var wire      1 N    img_data [4] $end
$var wire      1 O    img_data [3] $end
$var wire      1 P    img_data [2] $end
$var wire      1 Q    img_data [1] $end
$var wire      1 R    img_data [0] $end
$var wire      1 S    sram_dataout [7] $end
$var wire      1 T    sram_dataout [6] $end
$var wire      1 U    sram_dataout [5] $end
$var wire      1 V    sram_dataout [4] $end
$var wire      1 W    sram_dataout [3] $end
$var wire      1 X    sram_dataout [2] $end
$var wire      1 Y    sram_dataout [1] $end
$var wire      1 Z    sram_dataout [0] $end
$var reg       8 [    sram_datain [7:0] $end
$var wire      1 \    img_cen  $end
$var wire      1 ]    sram_cen  $end
$var wire      1 ]    sram_wen  $end
$var reg      14 ^    img_addr [13:0] $end
$var reg      14 _    sram_addr [13:0] $end
$var reg       4 `    cur_state [3:0] $end
$var reg       4 a    next_state [3:0] $end
$var reg       6 b    counter [5:0] $end
$var reg       7 c    counter_x [6:0] $end
$var reg       7 d    counter_y [6:0] $end
$var reg      14 e    remainder [13:0] $end
$var reg      15 f    a [14:0] $end
$var reg      15 g    b [14:0] $end
$var reg      15 h    c [14:0] $end
$var reg      15 i    d [14:0] $end
$var reg      35 j    ax3 [34:0] $end
$var reg      35 k    bx2 [34:0] $end
$var reg      35 l    cx [34:0] $end
$var reg      35 m    tmp_ans [34:0] $end
$var reg       7 n    p0_base [6:0] $end
$var reg      61 o    div_a [60:0] $end
$var reg      61 p    div_b [60:0] $end
$var reg      61 q    div_remainder [60:0] $end
$var wire     61 r    div_a_wire [60:0] $end
$var wire     61 s    div_quot_wire [60:0] $end
$var wire     61 t    div_b_wire [60:0] $end
$var wire     61 u    div_remainder_wire [60:0] $end
$var wire      1 v    div_by_0  $end
$var wire      1 w    div_by_0_y  $end
$var wire     11 x    div_a_wire_y [10:0] $end
$var wire     11 y    div_remainder_wire_y [10:0] $end
$var wire     11 z    div_b_wire_y [10:0] $end
$var wire     11 {    div_quot_wire_y [10:0] $end

$scope module u_ImgROM $end
$var parameter 32 |    BITS  $end
$var parameter 32 }    word_depth  $end
$var parameter 32 ~    addr_width  $end
$var parameter  8 !!   wordx  $end
$var parameter 14 "!   addrx  $end
$var wire      1 K    Q [7] $end
$var wire      1 L    Q [6] $end
$var wire      1 M    Q [5] $end
$var wire      1 N    Q [4] $end
$var wire      1 O    Q [3] $end
$var wire      1 P    Q [2] $end
$var wire      1 Q    Q [1] $end
$var wire      1 R    Q [0] $end
$var wire      1 #!   CLK  $end
$var wire      1 \    CEN  $end
$var wire      1 $!   A [13] $end
$var wire      1 %!   A [12] $end
$var wire      1 &!   A [11] $end
$var wire      1 '!   A [10] $end
$var wire      1 (!   A [9] $end
$var wire      1 )!   A [8] $end
$var wire      1 *!   A [7] $end
$var wire      1 +!   A [6] $end
$var wire      1 ,!   A [5] $end
$var wire      1 -!   A [4] $end
$var wire      1 .!   A [3] $end
$var wire      1 /!   A [2] $end
$var wire      1 0!   A [1] $end
$var wire      1 1!   A [0] $end
$var reg       1 2!   NOT_CEN  $end
$var reg       1 3!   NOT_A0  $end
$var reg       1 4!   NOT_A1  $end
$var reg       1 5!   NOT_A2  $end
$var reg       1 6!   NOT_A3  $end
$var reg       1 7!   NOT_A4  $end
$var reg       1 8!   NOT_A5  $end
$var reg       1 9!   NOT_A6  $end
$var reg       1 :!   NOT_A7  $end
$var reg       1 ;!   NOT_A8  $end
$var reg       1 <!   NOT_A9  $end
$var reg       1 =!   NOT_A10  $end
$var reg       1 >!   NOT_A11  $end
$var reg       1 ?!   NOT_A12  $end
$var reg       1 @!   NOT_A13  $end
$var reg      14 A!   NOT_A [13:0] $end
$var reg       1 B!   NOT_CLK_PER  $end
$var reg       1 C!   NOT_CLK_MINH  $end
$var reg       1 D!   NOT_CLK_MINL  $end
$var reg       1 E!   LAST_NOT_CEN  $end
$var reg      14 F!   LAST_NOT_A [13:0] $end
$var reg       1 G!   LAST_NOT_CLK_PER  $end
$var reg       1 H!   LAST_NOT_CLK_MINH  $end
$var reg       1 I!   LAST_NOT_CLK_MINL  $end
$var wire      1 J!   _Q [7] $end
$var wire      1 K!   _Q [6] $end
$var wire      1 L!   _Q [5] $end
$var wire      1 M!   _Q [4] $end
$var wire      1 N!   _Q [3] $end
$var wire      1 O!   _Q [2] $end
$var wire      1 P!   _Q [1] $end
$var wire      1 Q!   _Q [0] $end
$var wire     14 R!   _A [13:0] $end
$var wire      1 S!   _CLK  $end
$var wire      1 T!   _CEN  $end
$var reg       1 U!   LATCHED_CEN  $end
$var reg      14 V!   LATCHED_A [13:0] $end
$var reg       1 W!   CENi  $end
$var reg      14 X!   Ai [13:0] $end
$var reg       8 Y!   Qi [7:0] $end
$var reg       1 Z!   LAST_CLK  $end
$var wire      1 [!   re_flag  $end

$scope task update_logic $end
$var integer  32 \!   n  $end
$upscope $end


$scope task x_inputs $end
$var integer  32 ]!   n  $end
$upscope $end


$scope task read_mem $end
$var reg       1 ^!   r_wb  $end
$var reg       1 _!   xflag  $end
$upscope $end


$scope function valid_address $end
$var reg       1 `!   valid_address  $end
$var reg      14 a!   a [13:0] $end
$upscope $end

$upscope $end


$scope module u_ResultSRAM $end
$var parameter 32 b!   BITS  $end
$var parameter 32 c!   word_depth  $end
$var parameter 32 d!   addr_width  $end
$var parameter  8 e!   wordx  $end
$var parameter 14 f!   addrx  $end
$var wire      1 S    Q [7] $end
$var wire      1 T    Q [6] $end
$var wire      1 U    Q [5] $end
$var wire      1 V    Q [4] $end
$var wire      1 W    Q [3] $end
$var wire      1 X    Q [2] $end
$var wire      1 Y    Q [1] $end
$var wire      1 Z    Q [0] $end
$var wire      1 #!   CLK  $end
$var wire      1 ]    CEN  $end
$var wire      1 ]    WEN  $end
$var wire      1 g!   A [13] $end
$var wire      1 h!   A [12] $end
$var wire      1 i!   A [11] $end
$var wire      1 j!   A [10] $end
$var wire      1 k!   A [9] $end
$var wire      1 l!   A [8] $end
$var wire      1 m!   A [7] $end
$var wire      1 n!   A [6] $end
$var wire      1 o!   A [5] $end
$var wire      1 p!   A [4] $end
$var wire      1 q!   A [3] $end
$var wire      1 r!   A [2] $end
$var wire      1 s!   A [1] $end
$var wire      1 t!   A [0] $end
$var wire      1 u!   D [7] $end
$var wire      1 v!   D [6] $end
$var wire      1 w!   D [5] $end
$var wire      1 x!   D [4] $end
$var wire      1 y!   D [3] $end
$var wire      1 z!   D [2] $end
$var wire      1 {!   D [1] $end
$var wire      1 |!   D [0] $end
$var reg       1 }!   NOT_CEN  $end
$var reg       1 ~!   NOT_WEN  $end
$var reg       1 !"   NOT_A0  $end
$var reg       1 ""   NOT_A1  $end
$var reg       1 #"   NOT_A2  $end
$var reg       1 $"   NOT_A3  $end
$var reg       1 %"   NOT_A4  $end
$var reg       1 &"   NOT_A5  $end
$var reg       1 '"   NOT_A6  $end
$var reg       1 ("   NOT_A7  $end
$var reg       1 )"   NOT_A8  $end
$var reg       1 *"   NOT_A9  $end
$var reg       1 +"   NOT_A10  $end
$var reg       1 ,"   NOT_A11  $end
$var reg       1 -"   NOT_A12  $end
$var reg       1 ."   NOT_A13  $end
$var reg      14 /"   NOT_A [13:0] $end
$var reg       1 0"   NOT_D0  $end
$var reg       1 1"   NOT_D1  $end
$var reg       1 2"   NOT_D2  $end
$var reg       1 3"   NOT_D3  $end
$var reg       1 4"   NOT_D4  $end
$var reg       1 5"   NOT_D5  $end
$var reg       1 6"   NOT_D6  $end
$var reg       1 7"   NOT_D7  $end
$var reg       8 8"   NOT_D [7:0] $end
$var reg       1 9"   NOT_CLK_PER  $end
$var reg       1 :"   NOT_CLK_MINH  $end
$var reg       1 ;"   NOT_CLK_MINL  $end
$var reg       1 <"   LAST_NOT_CEN  $end
$var reg       1 ="   LAST_NOT_WEN  $end
$var reg      14 >"   LAST_NOT_A [13:0] $end
$var reg       8 ?"   LAST_NOT_D [7:0] $end
$var reg       1 @"   LAST_NOT_CLK_PER  $end
$var reg       1 A"   LAST_NOT_CLK_MINH  $end
$var reg       1 B"   LAST_NOT_CLK_MINL  $end
$var wire      1 C"   _Q [7] $end
$var wire      1 D"   _Q [6] $end
$var wire      1 E"   _Q [5] $end
$var wire      1 F"   _Q [4] $end
$var wire      1 G"   _Q [3] $end
$var wire      1 H"   _Q [2] $end
$var wire      1 I"   _Q [1] $end
$var wire      1 J"   _Q [0] $end
$var wire     14 K"   _A [13:0] $end
$var wire      1 S!   _CLK  $end
$var wire      1 L"   _CEN  $end
$var wire      1 M"   _WEN  $end
$var wire      8 N"   _D [7:0] $end
$var wire      1 O"   re_flag  $end
$var wire      1 P"   re_data_flag  $end
$var reg       1 Q"   LATCHED_CEN  $end
$var reg       1 R"   LATCHED_WEN  $end
$var reg      14 S"   LATCHED_A [13:0] $end
$var reg       8 T"   LATCHED_D [7:0] $end
$var reg       1 U"   CENi  $end
$var reg       1 V"   WENi  $end
$var reg      14 W"   Ai [13:0] $end
$var reg       8 X"   Di [7:0] $end
$var reg       8 Y"   Qi [7:0] $end
$var reg       8 Z"   LAST_Qi [7:0] $end
$var reg       1 ["   LAST_CLK  $end

$scope task x_inputs $end
$var integer  32 \"   n  $end
$upscope $end


$scope task read_mem $end
$var reg       1 ]"   r_wb  $end
$var reg       1 ^"   xflag  $end
$upscope $end


$scope task write_mem $end
$var reg      14 _"   a [13:0] $end
$var reg       8 `"   d [7:0] $end
$upscope $end


$scope task write_mem_x $end
$var reg      14 a"   a [13:0] $end
$upscope $end


$scope task x_mem $end
$var integer  32 b"   n  $end
$upscope $end


$scope function valid_address $end
$var reg       1 c"   valid_address  $end
$var reg      14 d"   a [13:0] $end
$upscope $end

$upscope $end


$scope module u_div $end
$var parameter 32 e"   a_width [31:0] $end
$var parameter 32 f"   b_width [31:0] $end
$var parameter 32 g"   tc_mode [31:0] $end
$var parameter 32 h"   rem_mode [31:0] $end
$var wire     61 r    a [60:0] $end
$var wire     61 t    b [60:0] $end
$var reg      61 i"   quotient [60:0] $end
$var reg      61 j"   remainder [60:0] $end
$var reg       1 k"   divide_by_0  $end
$var reg       1 l"   b_x  $end

$scope function DWF_div_uns $end
$var reg      61 m"   DWF_div_uns [60:0] $end
$var reg      61 n"   A [60:0] $end
$var reg      61 o"   B [60:0] $end
$var reg      61 p"   QUOTIENT_v [60:0] $end
$var reg       1 q"   A_x  $end
$var reg       1 r"   B_x  $end
$upscope $end


$scope function DWF_div_tc $end
$var reg      61 s"   DWF_div_tc [60:0] $end
$var reg      61 t"   A [60:0] $end
$var reg      61 u"   B [60:0] $end
$var reg      61 v"   A_v [60:0] $end
$var reg      61 w"   B_v [60:0] $end
$var reg      61 x"   QUOTIENT_v [60:0] $end
$var reg       1 y"   A_x  $end
$var reg       1 z"   B_x  $end
$upscope $end


$scope function DWF_rem_uns $end
$var reg      61 {"   DWF_rem_uns [60:0] $end
$var reg      61 |"   A [60:0] $end
$var reg      61 }"   B [60:0] $end
$var reg      61 ~"   REMAINDER_v [60:0] $end
$var reg       1 !#   A_x  $end
$var reg       1 "#   B_x  $end
$upscope $end


$scope function DWF_rem_tc $end
$var reg      61 ##   DWF_rem_tc [60:0] $end
$var reg      61 $#   A [60:0] $end
$var reg      61 %#   B [60:0] $end
$var reg      61 &#   A_v [60:0] $end
$var reg      61 '#   B_v [60:0] $end
$var reg      61 (#   REMAINDER_v [60:0] $end
$var reg       1 )#   A_x  $end
$var reg       1 *#   B_x  $end
$var reg      122 +#   A_extended [121:0] $end
$upscope $end


$scope function DWF_mod_uns $end
$var reg      61 ,#   DWF_mod_uns [60:0] $end
$var reg      61 -#   A [60:0] $end
$var reg      61 .#   B [60:0] $end
$var reg      61 /#   MODULUS_v [60:0] $end
$var reg       1 0#   A_x  $end
$var reg       1 1#   B_x  $end
$upscope $end


$scope function DWF_mod_tc $end
$var reg      61 2#   DWF_mod_tc [60:0] $end
$var reg      61 3#   A [60:0] $end
$var reg      61 4#   B [60:0] $end
$var reg      61 5#   A_v [60:0] $end
$var reg      61 6#   B_v [60:0] $end
$var reg      61 7#   REMAINDER_v [60:0] $end
$var reg      61 8#   MODULUS_v [60:0] $end
$var reg       1 9#   A_x  $end
$var reg       1 :#   B_x  $end
$var reg      122 ;#   A_extended [121:0] $end
$upscope $end


$scope begin parameter_check $end
$var integer  32 <#   param_err_flg  $end
$upscope $end

$upscope $end


$scope module u_div1 $end
$var parameter 32 =#   a_width [31:0] $end
$var parameter 32 >#   b_width [31:0] $end
$var parameter 32 ?#   tc_mode [31:0] $end
$var parameter 32 @#   rem_mode [31:0] $end
$var wire     11 x    a [10:0] $end
$var wire     11 z    b [10:0] $end
$var reg      11 A#   quotient [10:0] $end
$var reg      11 B#   remainder [10:0] $end
$var reg       1 C#   divide_by_0  $end
$var reg       1 D#   b_x  $end

$scope function DWF_div_uns $end
$var reg      11 E#   DWF_div_uns [10:0] $end
$var reg      11 F#   A [10:0] $end
$var reg      11 G#   B [10:0] $end
$var reg      11 H#   QUOTIENT_v [10:0] $end
$var reg       1 I#   A_x  $end
$var reg       1 J#   B_x  $end
$upscope $end


$scope function DWF_div_tc $end
$var reg      11 K#   DWF_div_tc [10:0] $end
$var reg      11 L#   A [10:0] $end
$var reg      11 M#   B [10:0] $end
$var reg      11 N#   A_v [10:0] $end
$var reg      11 O#   B_v [10:0] $end
$var reg      11 P#   QUOTIENT_v [10:0] $end
$var reg       1 Q#   A_x  $end
$var reg       1 R#   B_x  $end
$upscope $end


$scope function DWF_rem_uns $end
$var reg      11 S#   DWF_rem_uns [10:0] $end
$var reg      11 T#   A [10:0] $end
$var reg      11 U#   B [10:0] $end
$var reg      11 V#   REMAINDER_v [10:0] $end
$var reg       1 W#   A_x  $end
$var reg       1 X#   B_x  $end
$upscope $end


$scope function DWF_rem_tc $end
$var reg      11 Y#   DWF_rem_tc [10:0] $end
$var reg      11 Z#   A [10:0] $end
$var reg      11 [#   B [10:0] $end
$var reg      11 \#   A_v [10:0] $end
$var reg      11 ]#   B_v [10:0] $end
$var reg      11 ^#   REMAINDER_v [10:0] $end
$var reg       1 _#   A_x  $end
$var reg       1 `#   B_x  $end
$var reg      22 a#   A_extended [21:0] $end
$upscope $end


$scope function DWF_mod_uns $end
$var reg      11 b#   DWF_mod_uns [10:0] $end
$var reg      11 c#   A [10:0] $end
$var reg      11 d#   B [10:0] $end
$var reg      11 e#   MODULUS_v [10:0] $end
$var reg       1 f#   A_x  $end
$var reg       1 g#   B_x  $end
$upscope $end


$scope function DWF_mod_tc $end
$var reg      11 h#   DWF_mod_tc [10:0] $end
$var reg      11 i#   A [10:0] $end
$var reg      11 j#   B [10:0] $end
$var reg      11 k#   A_v [10:0] $end
$var reg      11 l#   B_v [10:0] $end
$var reg      11 m#   REMAINDER_v [10:0] $end
$var reg      11 n#   MODULUS_v [10:0] $end
$var reg       1 o#   A_x  $end
$var reg       1 p#   B_x  $end
$var reg      22 q#   A_extended [21:0] $end
$upscope $end


$scope begin parameter_check $end
$var integer  32 r#   param_err_flg  $end
$upscope $end

$upscope $end

$upscope $end


$scope task score $end
$var integer  32 s#   error_pixels  $end
$upscope $end

$upscope $end

$enddefinitions $end
$dumpvars
b1 @#
b0 ?#
b1011 >#
b1011 =#
b1 h"
b0 g"
b111101 f"
b111101 e"
bx f!
bx e!
b1110 d!
b100000000000000 c!
b1000 b!
bx "!
bx !!
b1110 ~
b100000000000000 }
b1000 |
b111 J
b11 I
b10 H
b1 G
b0 F
b11 0
b10 /
b1 .
b0 -
b1 ,
b10000000000000000000000000000011 !
bx "
0#
1$
b1000100 %
b1010 &
b1101 '
b1101 (
b10011 )
b10011 *
0+
b0 1
b0 2
b0 3
b0 4
b1 5
b1011010010 6
b0 7
b1 8
bx 9
bx :
bx ;
bx <
bx =
0>
1?
b1000100 @
b1010 A
b1101 B
b1101 C
b10011 D
b10011 E
xK
xL
xM
xN
xO
xP
xQ
xR
xS
xT
xU
xV
xW
xX
xY
xZ
b0 [
1\
1]
b0 ^
b0 _
b0 `
b1 a
b0 b
b0 c
b0 d
b0 e
b0 f
b0 g
b0 h
b0 i
b0 j
b0 k
b0 l
b0 m
bx n
b0 o
b0 p
bx q
b0 r
b1111111111111111111111111111111111111111111111111111111111111 s
b0 t
b0 u
1v
0w
b0 x
b0 y
b1100 z
b0 {
1#!
0$!
0%!
0&!
0'!
0(!
0)!
0*!
0+!
0,!
0-!
0.!
0/!
00!
01!
x2!
x3!
x4!
x5!
x6!
x7!
x8!
x9!
x:!
x;!
x<!
x=!
x>!
x?!
x@!
bx A!
xB!
xC!
xD!
xE!
bx F!
xG!
xH!
xI!
xJ!
xK!
xL!
xM!
xN!
xO!
xP!
xQ!
b0 R!
1S!
1T!
xU!
bx V!
xW!
bx X!
bx Y!
1Z!
0[!
bx \!
bx ]!
x^!
x_!
x`!
bx a!
0g!
0h!
0i!
0j!
0k!
0l!
0m!
0n!
0o!
0p!
0q!
0r!
0s!
0t!
0u!
0v!
0w!
0x!
0y!
0z!
0{!
0|!
x}!
x~!
x!"
x""
x#"
x$"
x%"
x&"
x'"
x("
x)"
x*"
x+"
x,"
x-"
x."
bx /"
x0"
x1"
x2"
x3"
x4"
x5"
x6"
x7"
bx 8"
x9"
x:"
x;"
x<"
x="
bx >"
bx ?"
x@"
xA"
xB"
xC"
xD"
xE"
xF"
xG"
xH"
xI"
xJ"
b0 K"
1L"
1M"
b0 N"
0O"
0P"
xQ"
xR"
bx S"
bx T"
xU"
xV"
bx W"
bx X"
bx Y"
bx Z"
1["
bx \"
x]"
x^"
bx _"
bx `"
bx a"
bx b"
xc"
bx d"
b1111111111111111111111111111111111111111111111111111111111111 i"
b0 j"
1k"
xl"
b1111111111111111111111111111111111111111111111111111111111111 m"
b0 n"
b0 o"
b1111111111111111111111111111111111111111111111111111111111111 p"
0q"
0r"
bx s"
bx t"
bx u"
bx v"
bx w"
bx x"
xy"
xz"
b0 {"
b0 |"
b0 }"
b0 ~"
0!#
0"#
bx ##
bx $#
bx %#
bx &#
bx '#
bx (#
x)#
x*#
bx +#
bx ,#
bx -#
bx .#
bx /#
x0#
x1#
bx 2#
bx 3#
bx 4#
bx 5#
bx 6#
bx 7#
bx 8#
x9#
x:#
bx ;#
b0 <#
b0 A#
b0 B#
0C#
xD#
b0 E#
b0 F#
b1100 G#
b0 H#
0I#
0J#
bx K#
bx L#
bx M#
bx N#
bx O#
bx P#
xQ#
xR#
b0 S#
b0 T#
b1100 U#
b0 V#
0W#
0X#
bx Y#
bx Z#
bx [#
bx \#
bx ]#
bx ^#
x_#
x`#
bx a#
bx b#
bx c#
bx d#
bx e#
xf#
xg#
bx h#
bx i#
bx j#
bx k#
bx l#
bx m#
bx n#
xo#
xp#
bx q#
b0 r#
bx s#
$end
#4000
1#
1>
0#!
0S!
0["
0Z!
#5000
b1 2
b0 9
#8000
0#
0>
1#!
1S!
b0 S"
b0 T"
1R"
1Q"
1U"
1V"
b0 W"
b0 X"
1["
b0 V!
1U!
1W!
b0 X!
1Z!
#12000
1#
1>
0#!
0S!
0["
0Z!
#13000
b10 2
#16000
0#
0>
1#!
1S!
1["
1Z!
#20000
1#
1>
0#!
0S!
0["
0Z!
#21000
b0 ;
0$
b0 2
b1 1
0?
#24000
0#
0>
1#!
1S!
1["
1Z!
#28000
1#
1>
0#!
0S!
0["
0Z!
b10 1
b1 `
b1101010011010 ^
b11111111101110 e
b11 a
0\
1%!
1&!
1(!
1*!
1-!
1.!
10!
0T!
1[!
b1101010011010 R!
#32000
0#
0>
1#!
1S!
1["
b1101010011010 V!
0U!
0W!
b1101010011010 X!
1^!
0_!
b1101010011010 a!
1`!
b111111 Y!
1Z!
0J!
0K!
1L!
1M!
1N!
1O!
1P!
1Q!
#33000
1R
1Q
1P
1O
1N
1M
0L
0K
#36000
1#
1>
0#!
0S!
0["
0Z!
b1 4
b11 `
b111111 [
b0 a
0]
1\
1w!
1x!
1y!
1z!
1{!
1|!
1T!
0M"
0L"
1P"
1O"
0[!
b111111 N"
#40000
0#
0>
1#!
1S!
b111111 T"
0R"
0Q"
0U"
0V"
b111111 X"
b0 _"
b111111 `"
b0 d"
1c"
0]"
0^"
b111111 Y"
1["
1U!
1W!
1Z!
0C"
0D"
1E"
1F"
1G"
1H"
1I"
1J"
#41000
1Z
1Y
1X
1W
1V
1U
0T
0S
#44000
1#
1>
0#!
0S!
0["
0Z!
b10 4
b0 `
b1 c
b0 e
1]
1M"
1L"
0O"
0P"
#48000
0#
0>
1#!
1S!
1R"
1Q"
b111111 Z"
1U"
1V"
1["
1Z!
#52000
1#
1>
0#!
0S!
0["
0Z!
b11 4
b1 b
b1101010011000 ^
b1111111 n
b11111111111010 e
b1 a
00!
b1101010011000 R!
#56000
0#
0>
1#!
1S!
1["
b1101010011000 V!
b1101010011000 X!
1Z!
#60000
1#
1>
0#!
0S!
0["
0Z!
b100 4
b1 `
b0 b
b1101010011001 ^
b0 n
b11111111101000 e
0\
11!
0T!
1[!
b1101010011001 R!
#64000
0#
0>
1#!
1S!
1["
b1101010011001 V!
0U!
0W!
b1101010011001 X!
b1101010011001 a!
b1001100 Y!
1Z!
1K!
0L!
0M!
0P!
0Q!
#65000
0R
0Q
0N
0M
1L
#68000
1#
1>
0#!
0S!
0["
0Z!
b101 4
b1 b
b1101010011010 ^
10!
01!
b1101010011010 R!
#72000
0#
0>
1#!
1S!
1["
b1101010011010 V!
b1101010011010 X!
b1101010011010 a!
b111111 Y!
1Z!
0K!
1L!
1M!
1P!
1Q!
#73000
1R
1Q
1N
1M
0L
#76000
1#
1>
0#!
0S!
0["
0Z!
b110 4
b10 b
b1101010011011 ^
11!
b1101010011011 R!
#80000
0#
0>
1#!
1S!
1["
b1101010011011 V!
b1101010011011 X!
b1101010011011 a!
b1001100 Y!
1Z!
1K!
0L!
0M!
0P!
0Q!
#81000
0R
0Q
0N
0M
1L
#84000
1#
1>
0#!
0S!
0["
0Z!
b111 4
b11 b
b1101010011100 ^
b10 a
1/!
00!
01!
b1101010011100 R!
#88000
0#
0>
1#!
1S!
1["
b1101010011100 V!
b1101010011100 X!
b1101010011100 a!
1Z!
#92000
1#
1>
0#!
0S!
0["
0Z!
b1000 4
b10 `
b0 b
b1101010011101 ^
1\
11!
1T!
0[!
b1101010011101 R!
#96000
0#
0>
1#!
1S!
1["
b1101010011101 V!
1U!
1W!
b1101010011101 X!
1Z!
#100000
1#
1>
0#!
0S!
0["
0Z!
b1001 4
b1 b
b111111011001000 f
b1000001000 g
b1111110000 i
#104000
0#
0>
1#!
1S!
1["
1Z!
#108000
1#
1>
0#!
0S!
0["
0Z!
b1010 4
b10 b
b11011000000 o
b1011011001000 p
b1011011001000 t
b1101100000000000000000000000000 r
b1101100000000000000000000000000 n"
b1011011001000 o"
b1001011110110100001 p"
b1001011110110100001 m"
b1001011110110100001 i"
b1101100000000000000000000000000 |"
b1011011001000 }"
b10000111000 ~"
b10000111000 {"
b10000111000 j"
0k"
0v
b10000111000 u
b1001011110110100001 s
#112000
0#
0>
1#!
1S!
1["
1Z!
#116000
1#
1>
0#!
0S!
0["
0Z!
b1011 4
b11 b
b11111111010001110001110001111001000 j
b10010000 o
b101000100 p
b101000100 t
b1001000000000000000000000000 r
b1001000000000000000000000000 n"
b101000100 o"
1r"
b1110001110001110001 p"
b1110001110001110001 m"
b1110001110001110001 i"
b1001000000000000000000000000 |"
b101000100 }"
1"#
b11111100 ~"
b11111100 {"
b11111100 j"
b11111100 u
b1110001110001110001 s
#120000
0#
0>
1#!
1S!
1["
1Z!
#124000
1#
1>
0#!
0S!
0["
0Z!
b1100 4
b100 b
b1110011100011100010110001000 k
b1100 o
b10010 p
b10010 t
b110000000000000000000000 r
b110000000000000000000000 n"
b10010 o"
0r"
b10101010101010101010 p"
b10101010101010101010 m"
b10101010101010101010 i"
b110000000000000000000000 |"
b10010 }"
0"#
b1100 ~"
b1100 {"
b1100 j"
b1100 u
b10101010101010101010 s
#128000
0#
0>
1#!
1S!
1["
1Z!
#132000
1#
1>
0#!
0S!
0["
0Z!
b1101 4
b101 b
#136000
0#
0>
1#!
1S!
1["
1Z!
#140000
1#
1>
0#!
0S!
0["
0Z!
b1110 4
b110 b
b1000111101010101010100101010000 m
b11 a
#144000
0#
0>
1#!
1S!
1["
1Z!
#148000
1#
1>
0#!
0S!
0["
0Z!
b1111 4
b11 `
b0 b
b1001000 [
b1 _
b0 a
0]
b0 t
b0 r
1t!
1v!
0w!
0x!
0z!
0{!
0|!
0M"
0L"
1P"
1O"
b0 n"
b0 o"
b1111111111111111111111111111111111111111111111111111111111111 p"
b1111111111111111111111111111111111111111111111111111111111111 m"
b1111111111111111111111111111111111111111111111111111111111111 i"
b0 |"
b0 }"
b0 ~"
b0 {"
b0 j"
1k"
b1001000 N"
b1 K"
1v
b0 u
b1111111111111111111111111111111111111111111111111111111111111 s
#152000
0#
0>
1#!
1S!
b1 S"
b1001000 T"
0R"
0Q"
0U"
0V"
b1 W"
b1001000 X"
b1 _"
b1001000 `"
b1 d"
b1001000 Y"
1["
1Z!
1D"
0E"
0F"
0H"
0I"
0J"
#153000
0Z
0Y
0X
0V
0U
1T
#156000
1#
1>
0#!
0S!
0["
0Z!
b10000 4
b0 `
b10 c
b0 e
1]
1M"
1L"
0O"
0P"
#160000
0#
0>
1#!
1S!
1R"
1Q"
b1001000 Z"
1U"
1V"
1["
1Z!
#164000
1#
1>
0#!
0S!
0["
0Z!
b10001 4
b1 b
b1101010011000 ^
b1111111 n
b110 e
0/!
01!
b1101010011000 R!
#168000
0#
0>
1#!
1S!
1["
b1101010011000 V!
b1101010011000 X!
1Z!
#172000
1#
1>
0#!
0S!
0["
0Z!
b10010 4
b10 b
b11111111110100 e
b1 a
#176000
0#
0>
1#!
1S!
1["
1Z!
#180000
1#
1>
0#!
0S!
0["
0Z!
b10011 4
b1 `
b0 b
b1101010011010 ^
b1 n
b11111111100010 e
0\
10!
0T!
1[!
b1101010011010 R!
#184000
0#
0>
1#!
1S!
1["
b1101010011010 V!
0U!
0W!
b1101010011010 X!
b1101010011010 a!
b111111 Y!
1Z!
0K!
1L!
1M!
1P!
1Q!
#185000
1R
1Q
1N
1M
0L
#188000
1#
1>
0#!
0S!
0["
0Z!
b10100 4
b1 b
b1101010011011 ^
11!
b1101010011011 R!
#192000
0#
0>
1#!
1S!
1["
b1101010011011 V!
b1101010011011 X!
b1101010011011 a!
b1001100 Y!
1Z!
1K!
0L!
0M!
0P!
0Q!
#193000
0R
0Q
0N
0M
1L
#196000
1#
1>
0#!
0S!
0["
0Z!
b10101 4
b10 b
b1101010011100 ^
1/!
00!
01!
b1101010011100 R!
#200000
0#
0>
1#!
1S!
1["
b1101010011100 V!
b1101010011100 X!
b1101010011100 a!
1Z!
#204000
1#
1>
0#!
0S!
0["
0Z!
b10110 4
b11 b
b1101010011101 ^
b10 a
11!
b1101010011101 R!
#208000
0#
0>
1#!
1S!
1["
b1101010011101 V!
b1101010011101 X!
b1101010011101 a!
b1001111 Y!
1Z!
1P!
1Q!
#209000
1R
1Q
#212000
1#
1>
0#!
0S!
0["
0Z!
b10111 4
b10 `
b0 b
b1101010011110 ^
1\
b10010 t
b110000000000000000000000 r
10!
01!
1T!
0[!
b110000000000000000000000 n"
b10010 o"
b10101010101010101010 p"
b10101010101010101010 m"
b10101010101010101010 i"
b110000000000000000000000 |"
b10010 }"
b1100 ~"
b1100 {"
b1100 j"
0k"
b1101010011110 R!
0v
b1100 u
b10101010101010101010 s
#216000
0#
0>
1#!
1S!
1["
b1101010011110 V!
1U!
1W!
b1101010011110 X!
1Z!
#220000
1#
1>
0#!
0S!
0["
0Z!
b11000 4
b1 b
b10000000 f
b111111100011000 g
b1101000 h
b10011000000 i
#224000
0#
0>
1#!
1S!
1["
1Z!
